\relax 
\citation{mcc43}
\@writefile{toc}{\contentsline {section}{\numberline {1}Stimuli and Response}{1}}
\@writefile{toc}{\contentsline {section}{\numberline {2}Nerve Nets and Behavior}{1}}
\citation{mcc49}
\citation{ger53}
\citation{mcc43}
\@writefile{toc}{\contentsline {section}{\numberline {3}McCulloch-Pitts Nerve Nets}{3}}
\newlabel{sec-mcculloch}{{3}{3}}
\@writefile{lof}{\contentsline {figure}{\numberline {1}{\ignorespaces  Conjunctive Net}}{4}}
\newlabel{fig-1}{{1}{4}}
\newlabel{fig-2}{{2}{4}}
\@writefile{lof}{\contentsline {figure}{\numberline {3}{\ignorespaces  Disjunctive Net}}{5}}
\newlabel{fig-3}{{3}{5}}
\@writefile{lof}{\contentsline {figure}{\numberline {4}{\ignorespaces  Delay Net}}{5}}
\newlabel{fig-4}{{4}{5}}
\newlabel{fig-5}{{5}{6}}
\@writefile{toc}{\contentsline {section}{\numberline {4}The Input to a Nerve Net}{6}}
\newlabel{sec-input}{{4}{6}}
\newlabel{fig-6}{{6}{7}}
\@writefile{toc}{\contentsline {section}{\numberline {5}Definite Events}{7}}
\newlabel{sec-definite}{{5}{7}}
\@writefile{toc}{\contentsline {subsection}{\numberline {5.1}``Definite Events'' Defined}{7}}
\newlabel{subsec-defined}{{5.1}{7}}
\@writefile{toc}{\contentsline {subsection}{\numberline {5.2}Representability of Definite Events: an Illustration}{7}}
\newlabel{subsec-illustration}{{5.2}{7}}
\newlabel{fig-7}{{7}{8}}
\newlabel{fig-8}{{8}{8}}
\@writefile{toc}{\contentsline {subsection}{\numberline {5.3}Representability of Definite Events: General Theory}{9}}
\newlabel{subsec-generaltheory}{{5.3}{9}}
\newlabel{theo-1}{{1}{9}}
\citation{mcc43}
\citation{hil28}
\newlabel{fig-9}{{9}{11}}
\newlabel{cor-1-1}{{1}{11}}
\citation{qui52}
\newlabel{cor-1-2}{{2}{12}}
\citation{mcc43}
\newlabel{lem-1}{{1}{13}}
\newlabel{cor-1-3}{{3}{13}}
\@writefile{toc}{\contentsline {subsection}{\numberline {5.4}Nerve Nets without Circles}{13}}
\newlabel{cor-2-1}{{1}{14}}
\@writefile{toc}{\contentsline {section}{\numberline {6}Indefinite Events: Preliminaries}{14}}
\newlabel{sec-preliminaries}{{6}{14}}
\@writefile{toc}{\contentsline {subsection}{\numberline {6.1}Examples}{14}}
\newlabel{subsec-examples}{{6.1}{14}}
\newlabel{fig-10}{{10}{15}}
\newlabel{fig-11}{{11}{15}}
\newlabel{fig-12}{{12}{15}}
\citation{hou45}
\newlabel{fig-13}{{13}{16}}
\@writefile{toc}{\contentsline {subsection}{\numberline {6.2}Initiation}{16}}
\newlabel{subsec-initiation}{{6.2}{16}}
\citation{mcc43}
\citation{mcc43}
\newlabel{fig-14}{{14}{17}}
\newlabel{fig-15}{{15}{18}}
\@writefile{toc}{\contentsline {subsection}{\numberline {6.3}Definite Events Reconsidered}{18}}
\newlabel{subsec-reconsidered}{{6.3}{18}}
\newlabel{fig-16}{{16}{20}}
\newlabel{fig-17}{{17}{20}}
\@writefile{toc}{\contentsline {subsection}{\numberline {6.4}Representability of Definite Events}{20}}
\newlabel{subsec-representdefinite}{{6.4}{20}}
\newlabel{fig-18}{{18}{20}}
\newlabel{fig-19}{{19}{21}}
\newlabel{fig-20}{{20}{21}}
\newlabel{fig-21}{{21}{21}}
\@writefile{toc}{\contentsline {section}{\numberline {7}Regular Events}{23}}
\newlabel{sec-regularevents}{{7}{23}}
\@writefile{toc}{\contentsline {subsection}{\numberline {7.1}Regular sets of tables and regular events}{23}}
\newlabel{subsec-setsoftables}{{7.1}{23}}
\citation{mcc43}
\@writefile{toc}{\contentsline {subsection}{\numberline {7.2}Algebraic Transformations of Regular Expressions}{26}}
\newlabel{subsec-algebraic}{{7.2}{26}}
\newlabel{lem-2}{{2}{27}}
\newlabel{lem-3}{{3}{27}}
\newlabel{lem-4}{{4}{28}}
\newlabel{lem-5}{{5}{29}}
\newlabel{lem-6}{{6}{30}}
\@writefile{toc}{\contentsline {subsection}{\numberline {7.3}Representability of regular events}{31}}
\newlabel{theo-3}{{3}{31}}
\newlabel{fig-22}{{22}{32}}
\newlabel{fig-23}{{23}{32}}
\newlabel{fig-24}{{24}{32}}
\newlabel{theo-4}{{4}{34}}
\@writefile{toc}{\contentsline {subsection}{\numberline {7.4}Problems}{34}}
\@writefile{toc}{\contentsline {section}{\numberline {8}The Concept of a Finite Automaton}{35}}
\newlabel{sec-concept}{{8}{35}}
\@writefile{toc}{\contentsline {subsection}{\numberline {8.1}Cells}{35}}
\@writefile{toc}{\contentsline {subsection}{\numberline {8.2}State}{36}}
\@writefile{toc}{\contentsline {section}{\numberline {9}Regularity of Representable Events}{37}}
\newlabel{sec-regularity}{{9}{37}}
\newlabel{theo-5}{{5}{37}}
\newlabel{lem-7}{{7}{38}}
\citation{tur36}
\citation{bro24}
\citation{kon27}
\@writefile{toc}{\contentsline {section}{\numberline {10}Representability in a Finite Automaton with an Infinite Past}{40}}
\newlabel{sec-infinitepast}{{10}{40}}
\newlabel{theo-6}{{6}{40}}
\citation{kle52}
\@writefile{toc}{\contentsline {section}{\numberline {11}Representability with a Finite Past but an Arbitrary Initial Internal State}{42}}
\newlabel{sec-arbitrary}{{11}{42}}
\newlabel{theo-7}{{7}{42}}
\@writefile{toc}{\contentsline {section}{\numberline {12}Primitive Recursiveness of Regular Events}{42}}
\newlabel{sec-recursiveness}{{12}{42}}
\newlabel{theo-8}{{8}{42}}
\@writefile{toc}{\contentsline {section}{\numberline {13}A Simple Example of an Irregular Event}{42}}
\newlabel{sec-simple}{{13}{42}}
\bibcite{bro24}{BRO 24}
\bibcite{ger53}{GER 53}
\bibcite{hil28}{HIL 28}
\bibcite{hou45}{HOU 45}
\bibcite{kle52}{KLE 52}
\@writefile{toc}{\contentsline {section}{Referencias}{43}}
\bibcite{kon27}{K\"{O}N 27}
\bibcite{mcc49}{McC 49}
\bibcite{mcc43}{McC 43}
\bibcite{qui52}{QUI 52}
\bibcite{tur36}{TUR 36}
